Grammar of data wrangling
…
---

## Select a single column

View only `lead_time` (number of days between booking and arrival date):

```r
select(hotels, lead_time)
```

```
## # A tibble: 119,390 x 1
##    lead_time
##        <dbl>
##  1       342
##  2       737
##  3         7
##  4        13
##  5        14
##  6        14
##  7         0
##  8         9
##  9        85
## 10        75
## #  with 119,380 more rows
```
…
---

## Select a single column

.pull-left[

```r
select( 
  hotels, 
  lead_time
  )
```

```
## # A tibble: 119,390 x 1
##    lead_time
##        <dbl>
##  1       342
##  2       737
##  3         7
##  4        13
##  5        14
##  6        14
##  7         0
##  8         9
##  9        85
## 10        75
## #  with 119,380 more rows
```
…
---

.tip[
dplyr functions always expect a data frame and always yield a data frame.
]

```r
select(hotels, lead_time)
```

```
## # A tibble: 119,390 x 1
##    lead_time
##        <dbl>
##  1       342
##  2       737
##  3         7
##  4        13
##  5        14
##  6        14
##  7         0
##  8         9
##  9        85
## 10        75
## #  with 119,380 more rows
```
…
## Select multiple columns

View only the `hotel` type and `lead_time`:

--

.pull-left[

```r
select(hotels, hotel, lead_time)
```

```
## # A tibble: 119,390 x 2
##    hotel        lead_time
##    <chr>            <dbl>
##  1 Resort Hotel       342
##  2 Resort Hotel       737
##  3 Resort Hotel         7
##  4 Resort Hotel        13
##  5 Resort Hotel        14
##  6 Resort Hotel        14
##  7 Resort Hotel         0
##  8 Resort Hotel         9
##  9 Resort Hotel        85
## 10 Resort Hotel        75
## #  with 119,380 more rows
```
…
---

## Data wrangling, step-by-step

.pull-left[
Select:

```r
hotels %>%
  select(hotel, lead_time)
```

```
## # A tibble: 119,390 x 2
##    hotel        lead_time
##    <chr>            <dbl>
##  1 Resort Hotel       342
##  2 Resort Hotel       737
##  3 Resort Hotel         7
##  4 Resort Hotel        13
##  5 Resort Hotel        14
##  6 Resort Hotel        14
##  7 Resort Hotel         0
##  8 Resort Hotel         9
##  9 Resort Hotel        85
## 10 Resort Hotel        75
## #  with 119,380 more rows
```
]

--
.pull-right[
Select, then arrange:

```r
hotels %>%
  select(hotel, lead_time) %>%
  arrange(desc(lead_time))
```

```
## # A tibble: 119,390 x 2
##    hotel        lead_time
##    <chr>            <dbl>
##  1 Resort Hotel       737
##  2 Resort Hotel       709
##  3 City Hotel         629
##  4 City Hotel         629
##  5 City Hotel         629
##  6 City Hotel         629
##  7 City Hotel         629
##  8 City Hotel         629
##  9 City Hotel         629
## 10 City Hotel         629
## #  with 119,380 more rows
```
…
.pull-left[
- Start with the data frame `hotels`, and pass it to the `select()` function,
]
.pull-right[
.small[

```r
*hotels %>%
  select(hotel, lead_time) %>%
  arrange(desc(lead_time))
```

```
## # A tibble: 119,390 x 2
##    hotel        lead_time
##    <chr>            <dbl>
##  1 Resort Hotel       737
##  2 Resort Hotel       709
##  3 City Hotel         629
##  4 City Hotel         629
##  5 City Hotel         629
##  6 City Hotel         629
##  7 City Hotel         629
##  8 City Hotel         629
##  9 City Hotel         629
## 10 City Hotel         629
## #  with 119,380 more rows
```
…
.pull-left[
- Start with the data frame `hotels`, and pass it to the `select()` function,
- then we select the variables `hotel` and `lead_time`,
]
.pull-right[
.small[

```r
hotels %>%
* select(hotel, lead_time) %>%
  arrange(desc(lead_time))
```

```
## # A tibble: 119,390 x 2
##    hotel        lead_time
##    <chr>            <dbl>
##  1 Resort Hotel       737
##  2 Resort Hotel       709
##  3 City Hotel         629
##  4 City Hotel         629
##  5 City Hotel         629
##  6 City Hotel         629
##  7 City Hotel         629
##  8 City Hotel         629
##  9 City Hotel         629
## 10 City Hotel         629
## #  with 119,380 more rows
```
…
```r
hotels %>%
  select(hotel, lead_time) %>% 
* arrange(desc(lead_time))
```

```
## # A tibble: 119,390 x 2
##    hotel        lead_time
##    <chr>            <dbl>
##  1 Resort Hotel       737
##  2 Resort Hotel       709
##  3 City Hotel         629
##  4 City Hotel         629
##  5 City Hotel         629
##  6 City Hotel         629
##  7 City Hotel         629
##  8 City Hotel         629
##  9 City Hotel         629
## 10 City Hotel         629
## #  with 119,380 more rows
```
…
```
## Error in select(hotel, lead_time): object 'hotel' not found
```

```r
hotels %>%
  select(hotel, lead_time)
```

```
## # A tibble: 119,390 x 2
##    hotel        lead_time
##    <chr>            <dbl>
##  1 Resort Hotel       342
##  2 Resort Hotel       737
##  3 Resort Hotel         7
##  4 Resort Hotel        13
##  5 Resort Hotel        14
##  6 Resort Hotel        14
##  7 Resort Hotel         0
##  8 Resort Hotel         9
##  9 Resort Hotel        85
## 10 Resort Hotel        75
## #  with 119,380 more rows
```
…
